…
approval_polllist %>% 
  distinct()

## # A tibble: 1,972 x 22
##    president   subgroup modeldate startdate enddate pollster    grade samplesize
##    <chr>       <chr>    <chr>     <chr>     <chr>   <chr>       <chr>      <dbl>
##  1 Joseph R. ~ All pol~ 10/21/20~ 1/19/2021 1/21/2~ Rasmussen ~ B           1500
##  2 Joseph R. ~ All pol~ 10/21/20~ 1/19/2021 1/21/2~ Morning Co~ B          15000
##  3 Joseph R. ~ All pol~ 10/21/20~ 1/20/2021 1/22/2~ Morning Co~ B          15000
##  4 Joseph R. ~ All pol~ 10/21/20~ 1/20/2021 1/21/2~ Morning Co~ B           1993
##  5 Joseph R. ~ All pol~ 10/21/20~ 1/20/2021 1/21/2~ Ipsos       B-          1115
##  6 Joseph R. ~ All pol~ 10/21/20~ 1/20/2021 1/21/2~ YouGov      B+          1516
##  7 Joseph R. ~ All pol~ 10/21/20~ 1/21/2021 1/23/2~ Morning Co~ B          15000
##  8 Joseph R. ~ All pol~ 10/21/20~ 1/21/2021 1/23/2~ RMG Resear~ B-          1200
##  9 Joseph R. ~ All pol~ 10/21/20~ 1/21/2021 1/22/2~ HarrisX     B+           941
## 10 Joseph R. ~ All pol~ 10/21/20~ 1/20/2021 1/24/2~ Rasmussen ~ B           1500
## # ... with 1,962 more rows, and 14 more variables: population <chr>,
## #   weight <dbl>, influence <dbl>, approve <dbl>, disapprove <dbl>,
## #   adjusted_approve <dbl>, adjusted_disapprove <dbl>, multiversions <chr>,
## #   tracking <lgl>, url <chr>, poll_id <dbl>, question_id <dbl>,
## #   createddate <chr>, timestamp <chr>
…
